<?xml version="1.0" encoding="UTF-8"?>
<testsuite name="StepwiseExtensionSpec" tests="3" skipped="0" failures="0" errors="0" timestamp="2016-09-16T19:52:21" hostname="matute-OptiPlex-7010" time="0.001">
  <properties/>
  <testcase name="step 1" classname="StepwiseExtensionSpec" time="0.001"/>
  <testcase name="step 2" classname="StepwiseExtensionSpec" time="0.0"/>
  <testcase name="step 3" classname="StepwiseExtensionSpec" time="0.0"/>
  <system-out><![CDATA[]]></system-out>
  <system-err><![CDATA[]]></system-err>
</testsuite>
