<?xml version="1.0" encoding="UTF-8"?>
<testsuite name="OrderedInteractionsSpec" tests="1" skipped="0" failures="0" errors="0" timestamp="2016-09-16T19:52:21" hostname="matute-OptiPlex-7010" time="0.004">
  <properties/>
  <testcase name="collaborators must be invoked in order" classname="OrderedInteractionsSpec" time="0.004"/>
  <system-out><![CDATA[]]></system-out>
  <system-err><![CDATA[]]></system-err>
</testsuite>
